// Created by Crowbar 0.71
version 1
nodes
  0 "R Hand" -1
  1 "W_BOLT" 0
  2 "ATTACH_Eject" 0
  3 "ATTACH_Muzzle" 0
  4 "W_MAGAZINE" 0
end
skeleton
  time 0
    0 -1.806641 10.023438 -0.265625 -0.026784 0.057771 -1.473730
    1 9.668133 0.337647 5.087360 -0.054907 -0.032258 1.473840
    2 10.695804 -0.378321 5.529641 0.126757 -0.311828 -1.624160
    3 30.678909 -1.779430 6.146970 1.603100 -0.054878 -0.098726
    4 10.787603 0.221476 1.182990 -0.054907 -0.032258 1.473840
end
